[gd_scene load_steps=7 format=2]

[ext_resource path="res://Asset/Sprites/World/tile_map.png" type="Texture" id=1]
[ext_resource path="res://Scripts/Door/DoorDestination.gd" type="Script" id=3]


[sub_resource type="AtlasTexture" id=1]
flags = 4
atlas = ExtResource( 1 )
region = Rect2( 256, 0, 64, 96 )

[sub_resource type="AtlasTexture" id=2]
flags = 4
atlas = ExtResource( 1 )
region = Rect2( 256, 0, 64, 96 )

[sub_resource type="SpriteFrames" id=3]
animations = [ {
"frames": [ SubResource( 1 ) ],
"loop": true,
"name": "Source",
"speed": 5.0
}, {
"frames": [ SubResource( 2 ) ],
"loop": true,
"name": "Destionation",
"speed": 5.0
} ]

[sub_resource type="RectangleShape2D" id=4]
extents = Vector2( 31, 16 )

[node name="TransitionDoorDestination" type="StaticBody2D"]
collision_layer = 2
collision_mask = 2
script = ExtResource( 3 )

[node name="AnimatedSprite" type="AnimatedSprite" parent="."]
position = Vector2( 0, -32 )
frames = SubResource( 3 )
animation = "Destionation"

[node name="CollisionShape2D" type="CollisionShape2D" parent="."]
shape = SubResource( 4 )
